


 ____    ___     _______   _____ _   _ _____ 
/ ___|  / \ \   / / ____| |_   _| | | | ____|
\___ \ / _ \ \ / /|  _|     | | | |_| |  _|  
 ___) / ___ \ V / | |___    | | |  _  | |___ 
|____/_/   \_\_/  |_____|   |_| |_| |_|_____|
                                             
  ____ _   _ ___ _     ____  ____  _____ _   _ 
 / ___| | | |_ _| |   |  _ \|  _ \| ____| \ | |
| |   | |_| || || |   | | | | |_) |  _| |  \| |
| |___|  _  || || |___| |_| |  _ <| |___| |\  |
 \____|_| |_|___|_____|____/|_| \_\_____|_| \_|
                                               
