Adam Goldman,https://twitter.com/adamgoldmanNYT/status/807661888649605120,Ashkenazi Jew,Jew York Times Reporter,Dissecting the #PizzaGate Conspiracy Theories https://t.co/CCMS8hTGCK,https://en.wikipedia.org/w/index.php?title=Adam_Goldman&oldid=725415821
Ben White,https://twitter.com/morningmoneyben/status/805989812486475776,Wife Is Ashkenazi Jew,POLITICO Chief Economic Correspondent and Morning Money columnist. CNBC contributor,Can't believe I have to say this but if you believe Comet Ping Pong is some child sex ring front you are a complete lunatic. #pizzagate,https://twitter.com/morningmoneyben/status/643184172576710656
Brian Stelter,https://twitter.com/brianstelter/status/805952198542651394,Ashkenazi Jew,"CNN's host of ReliableSources and senior media correspondent. Formerly nytimes, tvnewser and Top of the Morning","Tracing Pizzagate back to the beginning. Here's how a conspiracy theory is stitched together, lie by lie…",https://en.wikipedia.org/w/index.php?title=Brian_Stelter&oldid=757135136
Dave Weigel,https://twitter.com/daveweigel/status/814854029004144642,Zionist,Covering politics for @washingtonpost.  Also works with the ADL,"Pizzagate was the dumbest/strangest conspiracy theory of the year, but “Trump will quit the race any day now” was the most impactful.",http://mediamatters.org/blog/2010/05/14/adl-slams-anti-semite-buchanan-over-bigoted-att/164761
David Corn,https://twitter.com/DavidCornDC/status/806121171083231236,Ashkenazi Jew,"Washington bureau chief of Mother Jones, MSNBC analyst","This is what happens when deplorables take over the USG. Gen. Flynn pushed Pizzagate, too. Bannon championed white nationalists.",Need to refind
Dean Obeidallah,https://twitter.com/Deanofcomedy/status/806130050827513856,Ashkenazi Jew,Host of The Dean Obeidallah show SIRIUSXM radio Mon-Fri Ch 121. Columnist thedailybeast Contributor cnnopinion Co-Director comedy documentary MuslimsRComing,Hey media: stop being politically correct and call the #pizzagate shooter a terrorist radicalized by right wing media!,https://twitter.com/Deanofcomedy/status/806130050827513856
Eric W. Dolan,https://twitter.com/EWDolan/status/814206646993829888,Ashkenazi Jew,Managing editor at @RawStory and founder of @PsyPost.,This crazy video shows an unhinged Trump supporter interrupting a church mass to scream about 'PizzaGate' https://t.co/TUeX6rEnWL,https://twitter.com/search?q=jew%20from:EWDolan&src=typd
Greg Gutfeld,https://twitter.com/greggutfeld/status/805924035460796416,Father Is Ashkenazi Jew,"American television personality, author, magazine editor, and blogger.",are those pushing #pizzagate actually sexual deviants using that lie as a false flag to keep police from focusing on their crimes? Hmmm…,https://en.wikipedia.org/w/index.php?title=Greg_Gutfeld&oldid=758551477
Jake Tapper,https://twitter.com/jaketapper/status/805877683859099648,Ashkenazi Jew,CNN Anchor and Chief Washington Correspondent. Dissecting my tweets with Talmudic meticulousness will result in wrong conclusions. - Wifes fav restaurant is Comet,And here it is: destroy the owners of Comet Pizza with lies and smears because they're liberals.,https://en.wikipedia.org/w/index.php?title=Jake_Tapper&oldid=755836163
Jonathan Alter,https://twitter.com/jonathanalter/status/806119340483506176,Ashkenazi Jew,"MSNBC analyst, DailyBeast columnist. Co-host, Sirius XM Alter Family Politics.","Trump is Old Faithful of fake news, and that can cause real damage. When will GOP electors demand he renounce this? https://t.co/xQmSCZHBUn",https://en.wikipedia.org/w/index.php?title=Jonathan_Alter&oldid=738220871
Josh Marshall,https://twitter.com/joshtpm/status/806175393103413249,Ashkenazi Jew,"Editor and Publisher of TPM - The Jew York Times Magazine called TPM ""one of the most popular and most respected sites"" , Wife name is Millet Israeli","Flynn's Son, 'Pizzagate' Promoter, Is No Longer On Trump Transition Team https://t.co/NaqvwrVhgl",https://en.wikipedia.org/w/index.php?title=Josh_Marshall&oldid=757972903
Joyce Carol Oates,https://twitter.com/JoyceCarolOates/status/814143327134162945,Ashkenazi Jew,Author and works with press,"Eventually, even ""pizza gate"" is imprinted in public consciousness, like T***p ""birtherism"" slander.",https://en.wikipedia.org/wiki/Joyce_Carol_Oates
Karen Geier,https://twitter.com/karengeier/status/814285626585575424,Crypto Ashkenazi Jew,Writer & Content Strategist. Bylines in @Guardian @SeriousEats @GlobalNews @HuffingtonPost @Splitsider @TheIBang https://medium.com/@karengeier,"it gets lost in the shuffle, but the #pizzagate believers are mostly virulently homophobic morons",https://medium.com/@karengeier/twitter-still-cant-get-security-right-96b4f42dd053
Kelly Weill,https://twitter.com/KELLYWEILL/status/814296344655523844,Ashkenazi Jew,"Reporter at @thedailybeast, Deputy Mayor at Party City.","i implore you to watch this video of a man allegedly yelling ""pizzagate is real"" during a christmas mass https://twitter.com/Deplorable4L/status/813395122041790464",https://twitter.com/KELLYWEILL/status/643270005816205312
Kurt Eichenwald,https://twitter.com/kurteichenwald/status/816413485752000512,Father Is Ashkenazi Jew,"Contributing editor, Vanity Fair; senior writer, Newsweek; New York Times bestselling author.","Lunatics like pizza gate conspirators are automatically blocked from this feed. Don't engage them. They need thorazine, not debate.",https://en.wikipedia.org/wiki/Kurt_Eichenwald
 Matt McDermott,https://twitter.com/mattmfm/status/806105048912687105,Ashkenazi Jew,Pollster | Senior Analyst @ Whitman Insight Strategies | 'Highly researched Dem propaganda with a bit of Rhode Island flavor',Trump Twitter silent regarding: - Pizzagate - spike in hate crimes (per NYPD) Instead used Twitter this week to: - bash SNL - bash the press,https://twitter.com/mattmfm/status/56735848862978048
Matthew Gertz,https://twitter.com/MattGertz/status/805601999492411392,Ashkenazi Jew,Senior Fellow at Media Matters.,"It wouldn't be surprising if Flynn pushed pizzagate, he's a conspiracy nut, but haven't seen proof yet. Will update if I do.",https://twitter.com/MattGertz/status/709054256280682498
Mike Madden,https://twitter.com/MikeMadden/status/805533479186337794,Ashkenazi Jew,Deputy editor of @PostOutlook and editor of @PostEverything. Former @wcp editor. Want to write for the @washingtonpost? Email mike.madden@washpost.com.,Of course this preposterous #PizzaGate conspiracy theory also now includes a claim that this gunman is a “false flag” to discredit theory.,https://twitter.com/MikeMadden/status/738461487795212288
Parker Molloy ,https://twitter.com/ParkerMolloy/status/805601463380668416,Ashkenazi Tranny Jew,Writer at Upworthy and tranny activist,"Right-wing conspiracy theories have real consequences. No, Planned Parenthood didn't sell baby parts. No, ""pizza gate"" isn't real.",Need to refind
Peter Jukes,https://twitter.com/peterjukes/status/817519328501362688,Ashkenazi Jew,Daniel Morgan Murder Podcast. Writer for both The Independent and the New Statesman,I saw nothing in the emails that justified the portentous Pizzagate spin @IrkHudson @realDonaldTrump @keithboykin @sherifffruitfly,https://twitter.com/peterjukes/status/784342726741372930
Peter Sterne,https://twitter.com/petersterne/status/816394990624669696,Father Is Ashkenazi Jew,Reporter @politico_media.,@mattdrange Talk about a waste of docket space. The XP emails make Pizzagate look sane.,https://twitter.com/petersterne/status/292444245447540736
Rick Wilson,https://twitter.com/TheRickWilson/status/814700540437426176,Ashkenazi Jew,"GOP, Writer for the The Daily Beast, Politico, The New York Daily News, The Federalist, Independent Journal Review, and Ricochet.","9/ You believe in absurd, baroque conspiracy horseshit like Pizzagate, but can't conceive RUS leaders could seek to disrupt an election?",https://twitter.com/TheRickWilson/status/640181658617008128
Rob Reiner,https://twitter.com/robreiner/status/806155020873834497,Ashkenazi Jew,"Filmmaker, actor, producer. In 2015, he donated US $10,000 to Correct the Record.",Time for MSM to stop calling what DT spews fake news and say what it is: lying bullshit propaganda. Without independent press democracy dies,https://en.wikipedia.org/w/index.php?title=Rob_Reiner&oldid=758325341
Ryan Broderick,https://twitter.com/broderick/status/814485282510741504,Ashkenazi Jew,Cool news and words guy @Buzzfeed. Prattling on about weird nonsense for the @iexplorer podcast. Permanently jetlagged. Email: ryan@buzzfeed.com.,"yeesh — ""Then after the election, I felt a bit lost,"" Caplan said. ""But then 'Pizzagate' showed up."" https://t.co/e3BlXZOq2a",http://www.redbubble.com/people/broderick202/works/4877949-jewish-in-ny?p=tote-bag&rel=carousel
Ryan Houlihan,https://twitter.com/RyanHoulihan/status/817467770698862592,Ashkenazi Jew,"LGBT Activist. Gay. Nikki Blonsky from the movie Hairspray. Seen at: @outline, @teenvogue, @mtv, @difficultonhulu, @universal, @glaad, @trutv.","Ah yes, a private opt-in service and a database of non-profits is the same as creating a database of families for the next Pizzagate shooter",https://twitter.com/RyanHoulihan/status/800470045356937216
Scott Dworkin,https://twitter.com/funder/status/805609370214133760,Ashkenazi Jew,Democratic Coalition (keepamergr8) Senior Advisor,Need to refind,Need to refind and user deleted tweet – need screenshot
Sid Acker,https://twitter.com/siddharma/status/806158339537149952,Ashkenazi Jew,Jew York Times Writer,There's actually a clearer line of sourcing on story that shape-shifting reptilian aliens control us than there ever was in #pizzagate crap.,https://twitter.com/siddharma/status/338897564176904192
Ted Lieu,https://twitter.com/tedlieu/status/815227747970617344,Zionist,"Husband of Betty, the love of my life. Father of two great kids. USAF vet. Member of Congress. In that order.",I find it disturbing that many #Trump supporters believed in #pizzagate but can't fathom Russia would hack America.,www.jewishjournal.com/nation/article/qa_with_ted_lieu_netanyahus_speech_potential_deal_with_iran
Tony Posnansk,https://twitter.com/tonyposnanski/status/815424744581427200,Ashkenazi Jew,"Huffington Post writer, Planned Parenthood Supporter",@Dianecg4 @SisterD @realDonaldTrump Yes Diane. It is nice to see a tweeter like yourself still believe in pizzagate and everything from YouTube. May 2017 bring you more fun.,
Van Applegate,https://twitter.com/VBagate/status/816329439210590210,Ashkenazi Jew,Journo at @fox5dc,@trebillion pizza gate is old and tired. Move along. Find another story.,https://twitter.com/search?q=jewish%20from%3AVBagate&src=typd
Will Sommer,https://twitter.com/willsommer/status/805532001025556481,Ashkenazi Jew,Campaign editor @thehill,This @kojoshow ep really shows the human impact of #pizzagate lunacy https://t.co/xYCHE0NYDs,https://twitter.com/willsommer/status/448216740603125760
Wolf Blitzer,https://twitter.com/xebec78/status/806114686336962560,Ashkenazi Jew,CNN's lead political anchor ,.@wolfblitzer You say the Pizzagate story is false. Can you call the owner of Comet Ping Pong and ask him if the Pizzeria has a basement?,https://en.wikipedia.org/w/index.php?title=Wolf_Blitzer&oldid=757092464
